(module B3FS-10 (layer F.Cu) (tedit 5A9FC03F)
  (fp_text reference REF** (at 0 -4) (layer F.SilkS)
    (effects (font (size 1 1) (thickness 0.15)))
  )
  (fp_text value B3FS-10 (at 0 4) (layer F.Fab)
    (effects (font (size 1 1) (thickness 0.15)))
  )
  (fp_line (start -3 3.25) (end 3 3.25) (layer F.SilkS) (width 0.15))
  (fp_line (start -3 -3.25) (end 3 -3.25) (layer F.SilkS) (width 0.15))
  (fp_line (start 3 3.25) (end 3 -3.25) (layer F.SilkS) (width 0.15))
  (fp_line (start -3 3.25) (end -3 -3.25) (layer F.SilkS) (width 0.15))
  (pad 2 smd rect (at 4 -2.25) (size 1.6 1.4) (layers F.Cu F.Paste F.Mask))
  (pad 4 smd rect (at -4 -2.25) (size 1.6 1.4) (layers F.Cu F.Paste F.Mask))
  (pad 1 smd rect (at 4 2.25) (size 1.6 1.4) (layers F.Cu F.Paste F.Mask))
  (pad 3 smd rect (at -4 2.25) (size 1.6 1.4) (layers F.Cu F.Paste F.Mask))
)
