(module D2PAK (layer F.Cu) (tedit 588D24A7)
  (fp_text reference REF** (at 0 -4.445) (layer F.SilkS)
    (effects (font (size 1 1) (thickness 0.15)))
  )
  (fp_text value D2PAK (at 6.985 12.065) (layer F.Fab)
    (effects (font (size 1 1) (thickness 0.15)))
  )
  (pad 2 smd rect (at 2.54 10.795) (size 2.4 4.23) (layers F.Cu F.Paste F.Mask))
  (pad 3 smd rect (at 0 -1.905) (size 11 4.02) (layers F.Cu F.Paste F.Mask))
  (pad 4 smd rect (at 0 3.175) (size 8 6.5) (layers F.Cu F.Paste F.Mask))
  (pad 1 smd rect (at -2.54 10.795) (size 2.4 4.23) (layers F.Cu F.Paste F.Mask))
)
