(module Jumper_3_SMD_1.27 (layer F.Cu) (tedit 589E4CB3)
  (descr "surface-mounted straight pin header, 1x03, 1.27mm pitch, single row, style 1 (pin 1 left)")
  (tags "Surface mounted pin header SMD 1x03 1.27mm single row style1 pin1 left")
  (attr smd)
  (fp_text reference REF** (at 0.25 -2.5) (layer F.SilkS)
    (effects (font (size 1 1) (thickness 0.15)))
  )
  (fp_text value Jumper_3_SMD_1.27 (at 0.3 2.55) (layer F.Fab)
    (effects (font (size 1 1) (thickness 0.15)))
  )
  (fp_line (start -1.135 -1.72) (end -1.135 1.72) (layer F.Fab) (width 0.1))
  (fp_line (start -1.135 1.72) (end 1.135 1.72) (layer F.Fab) (width 0.1))
  (fp_line (start 1.135 1.72) (end 1.135 -1.72) (layer F.Fab) (width 0.1))
  (fp_line (start -1.135 -1.72) (end 1.135 -1.72) (layer F.Fab) (width 0.1))
  (pad 1 smd rect (at 0 -1.27) (size 2.1 0.75) (layers F.Cu F.Mask))
  (pad 3 smd rect (at 0 1.27) (size 2.1 0.75) (layers F.Cu F.Mask))
  (pad 2 smd rect (at 0 0) (size 2.1 0.75) (layers F.Cu F.Mask))
  (model Pin_Headers.3dshapes/Pin_Header_Straight_1x03_Pitch1.27mm_SMD_Pin1Left.wrl
    (at (xyz 0 0 0))
    (scale (xyz 1 1 1))
    (rotate (xyz 0 0 0))
  )
)
