(module SD_card_micro_8Pos (layer F.Cu) (tedit 58A6CEB2)
  (fp_text reference REF** (at 0.5 -10.5) (layer F.SilkS)
    (effects (font (size 1 1) (thickness 0.15)))
  )
  (fp_text value "SD card micro 8Pos" (at 0.25 9.75) (layer F.Fab)
    (effects (font (size 1 1) (thickness 0.15)))
  )
  (fp_line (start -6.7 8.05) (end 4.65 8.05) (layer F.SilkS) (width 0.15))
  (fp_arc (start -6.7 8.8) (end -7.45 8.8) (angle 90) (layer F.SilkS) (width 0.15))
  (fp_arc (start 4.65 8.8) (end 4.65 8.05) (angle 90) (layer F.SilkS) (width 0.15))
  (fp_line (start 6.45 8.8) (end 5.4 8.8) (layer F.SilkS) (width 0.15))
  (fp_line (start 6.45 -8.8) (end 6.45 8.8) (layer F.SilkS) (width 0.15))
  (fp_line (start -7.45 -8.8) (end -7.45 8.8) (layer F.SilkS) (width 0.15))
  (fp_line (start -7.45 -8.8) (end 6.45 -8.8) (layer F.SilkS) (width 0.15))
  (pad 9 smd rect (at 3.7 -8.8) (size 1 1.2) (layers F.Cu F.Paste F.Mask))
  (pad 8 smd rect (at -5.55 -8.8) (size 0.7 1.2) (layers F.Cu F.Paste F.Mask))
  (pad 7 smd rect (at -4.45 -8.8) (size 0.7 1.2) (layers F.Cu F.Paste F.Mask))
  (pad 6 smd rect (at -3.35 -8.8) (size 0.7 1.2) (layers F.Cu F.Paste F.Mask))
  (pad 5 smd rect (at -2.25 -8.8) (size 0.7 1.2) (layers F.Cu F.Paste F.Mask))
  (pad 4 smd rect (at -1.15 -8.8) (size 0.7 1.2) (layers F.Cu F.Paste F.Mask))
  (pad 3 smd rect (at -0.05 -8.8) (size 0.7 1.2) (layers F.Cu F.Paste F.Mask))
  (pad 2 smd rect (at 1.05 -8.8) (size 0.7 1.2) (layers F.Cu F.Paste F.Mask))
  (pad 1 smd rect (at 2.15 -8.8) (size 0.7 1.2) (layers F.Cu F.Paste F.Mask))
)
